generated/ALU.vcd
$date
2021-11-07T22:13+0000
$end
$version
0.2
$end
$comment

$end
$timescale 1ns  $end
$scope module ALU $end
 $var wire 64 ! _GEN_22 $end
 $var wire 64 " _GEN_16 $end
 $var wire 16 # _GEN_2 $end
 $var wire 32 $ _GEN_10 $end
 $var wire 1 % _T $end
 $var wire 1 & _GEN_19 $end
 $var wire 1 ' _GEN_5 $end
 $var wire 1 ( _GEN_13 $end
 $var wire 32 ) io_res $end
 $var wire 16 * io_im $end
 $var wire 32 + _GEN_8 $end
 $var wire 32 , _GEN_24 $end
 $var wire 4 - io_sel $end
 $var wire 32 . _GEN_12 $end
 $var wire 1 / _GEN_7 $end
 $var wire 1 0 _GEN_15 $end
 $var wire 1 1 _GEN_21 $end
 $var wire 32 2 io_b $end
 $var wire 64 3 _GEN_18 $end
 $var wire 32 4 _GEN_4 $end
 $var wire 1 5 clock $end
 $var wire 1 6 _GEN_17 $end
 $var wire 1 7 _GEN_11 $end
 $var wire 64 8 _GEN_20 $end
 $var wire 32 9 _GEN_6 $end
 $var wire 32 : _GEN_14 $end
 $var wire 32 ; io_a $end
 $var wire 1 < _GEN_9 $end
 $var wire 1 = reset $end
 $var wire 1 > io_comp $end
$upscope $end
$enddefinitions $end
$dumpvars
0%
b00000000000000000000000000000000 ;
0&
0<
0'
0=
b0000000000000000000000000000000000000000000000000000000000000000 !
0>
06
b0000000000000000000000000000000000000000000000000000000000000000 8
07
b00000000000000000000000000000000 9
b00000000000000000000000000000000 :
b00000000000000000000000000000000 2
b0000000000000000000000000000000000000000000000000000000000000000 3
b00000000000000000000000000000000 4
b0000000000000000 #
05
b00000000000000000000000000000000 .
0/
00
0(
b00000000000000000000000000000000 )
01
b0000000000000000000000000000000000000000000000000000000000000000 "
b00000000000000000000000000000000 +
b00000000000000000000000000000000 ,
b0000 -
b00000000000000000000000000000000 $
b0000000000000000 *
$end
#0
1%
1=
#1
15
#6
05
#11
15
#16
05
#21
15
#26
05
#31
15
#36
05
#41
15
#46
b0000000000000000000000000000000000000000000000000000000010001000 !
05
b00000000000000000000000101000001 2
b0000000000001101 *
0=
b00000000000000000000000000001101 ,
b00000000000000000000000001111011 ;
b00000000000000000000000010001000 )
#51
15
#56
05
#61
15
#66
05
#71
15
#76
05
#81
15
#86
05
#91
15
#96
b0000000000000000000000000000000000000000000000000000000000000011 !
b0001 -
0%
b0000000000000000000000000000000000000000000000000000000000000011 8
05
b00000000000000000000000000000010 2
b00000000000000000000000000000001 ;
b00000000000000000000000000000011 )
#101
15
#106
05
#111
15
#116
05
#121
15
#126
05
#131
15
#136
05
#141
15
#146
b0000000000000000000000000000000011111111111111111111111111110110 3
b0000000000000000000000000000000011111111111111111111111111110110 !
b0010 -
b0000000000000000000000000000000011111111111111111111111111110110 8
05
b00000000000000000000000000000100 2
b00000000000000000000000000000011 ;
b11111111111111111111111111110110 )
#151
15
#156
05
#161
15
#166
05
#171
15
#176
05
#181
15
#186
05
#191
15
#196
b0000000000000000000000000000000000000000000000000000000000011110 3
b0000000000000000000000000000000000000000000000000000000000011110 !
b0011 -
b0000000000000000000000000000000000000000000000000000000000011110 "
b0000000000000000000000000000000000000000000000000000000000011110 8
05
b00000000000000000000000000000110 2
b00000000000000000000000000000101 ;
b00000000000000000000000000011110 )
#201
15
#206
05
#211
15
#216
05
#221
15
#226
05
#231
15
#236
05
#241
15
#246
b0000000000000000000000000000000000000000000000000000000000000111 3
b0000000000000000000000000000000000000000000000000000000000000111 !
b0100 -
b0000000000000000000000000000000000000000000000000000000000000111 "
b0000000000000000000000000000000000000000000000000000000000000111 8
05
b00000000000000000000000000001000 2
b00000000000000000000000000000111 :
b00000000000000000000000000000111 ;
b00000000000000000000000000000111 )
#251
15
#256
b0000000000000000000000000000000000000000000000000000000000001001 3
b0000000000000000000000000000000000000000000000000000000000001001 !
b0101 -
b0000000000000000000000000000000000000000000000000000000000001001 "
b00000000000000000000000000001001 .
b0000000000000000000000000000000000000000000000000000000000001001 8
05
b00000000000000000000000000001010 2
b00000000000000000000000000001001 :
b00000000000000000000000000001001 ;
b00000000000000000000000000001001 )
#261
15
#266
05
#271
15
#276
05
#281
15
#286
05
#291
15
#296
05
#301
15
#306
b0000000000000000000000000000000000000000000000000000000000001011 3
b0000000000000000000000000000000000000000000000000000000000001011 !
b0110 -
b0000000000000000000000000000000000000000000000000000000000001011 "
b00000000000000000000000000001011 .
b0000000000000000000000000000000000000000000000000000000000001011 8
05
b00000000000000000000000000001100 2
b00000000000000000000000000001011 $
b00000000000000000000000000001011 :
b00000000000000000000000000001011 ;
b00000000000000000000000000001011 )
#311
15
#316
05
#321
15
#326
05
#331
15
#336
05
#341
15
#346
05
#351
15
#356
b0000000000000000000000000000000000000000000000000000000001000101 3
b0111 -
1<
b00000000000000000000000001000101 .
1&
05
16
1(
17
1>
b00000000000000000000000001000101 )
b0000000000000000000000000000000000000000000000000000000001000101 !
10
b0000000000000000000000000000000000000000000000000000000001000101 "
11
b0000000000000000000000000000000000000000000000000000000001000101 8
b00000000000000000000000000001110 2
b0000000001000101 *
b00000000000000000000000001000101 $
b00000000000000000000000001000101 +
b00000000000000000000000001000101 :
b00000000000000000000000001000101 ,
b00000000000000000000000000001101 ;
#361
15
#366
05
#371
15
#376
05
#381
15
#386
05
#391
15
#396
05
#401
15
#406
b0000000000000000000000000000000000000000000000000000000000001111 3
b1000 -
0<
b00000000000000000000000000001111 .
0&
05
06
0(
07
0>
b00000000000000000000000000001111 )
b0000000000000000000000000000000000000000000000000000000000001111 !
00
b0000000000000000000000000000000000000000000000000000000000001111 "
01
b0000000000000000000000000000000000000000000000000000000000001111 8
b00000000000000000000000000010000 2
b0000000110100100 *
b00000000000000000000000000001111 9
b00000000000000000000000000001111 $
b00000000000000000000000000001111 +
b00000000000000000000000000001111 :
b00000000000000000000000110100100 ,
b00000000000000000000000000001111 ;
#411
15
#416
05
#421
15
#426
05
#431
15
#436
05
#441
15
#446
05
#451
15
#456
b0000000000000000000000000000000000000000000000000000000000010001 3
b1001 -
1<
b00000000000000000000000000010001 4
b00000000000000000000000000010001 .
1&
05
1'
16
1(
17
1/
1>
b00000000000000000000000000010001 )
b0000000000000000000000000000000000000000000000000000000000010001 !
10
b0000000000000000000000000000000000000000000000000000000000010001 "
11
b0000000000000000000000000000000000000000000000000000000000010001 8
b00000000000000000000000000010010 2
b0000000011111111 *
b00000000000000000000000000010001 9
b00000000000000000000000000010001 $
b00000000000000000000000000010001 +
b00000000000000000000000000010001 :
b00000000000000000000000011111111 ,
b00000000000000000000000000010001 ;
#461
15
#466
05
#471
15
#476
05
#481
15
#486
05
#491
15
#496
05
#501
15
#506
b0000000000000000000000000000000000000000000000001111111111111111 3
b1010 -
b00000000000000001111111111111111 4
b00000000000000001111111111111111 .
05
b00000000000000001111111111111111 )
b0000000000000000000000000000000000000000000000001111111111111111 !
b0000000000000000000000000000000000000000000000001111111111111111 "
b0000000000000000000000000000000000000000000000001111111111111111 8
b1111111111111111 #
b00000000000000000000000000010100 2
b0000000001101111 *
b00000000000000001111111111111111 9
b00000000000000001111111111111111 $
b00000000000000001111111111111111 +
b00000000000000001111111111111111 :
b00000000000000000000000001101111 ,
b00000000000000000000000000010011 ;
