generated/ProgramMemory.vcd
$date
2021-11-07T22:16+0000
$end
$version
0.2
$end
$comment

$end
$timescale 1ns  $end
$scope module ProgramMemory $end
 $var wire 16 ! io_testerAddress $end
 $var wire 32 " io_instructionRead $end
 $var wire 32 # _GEN_5 $end
 $var wire 1 & io_testerWriteEnable $end
 $var wire 16 ( io_address $end
 $var wire 32 ) io_testerDataWrite $end
 $var wire 32 , memory $end
 $var wire 1 - clock $end
 $var wire 1 4 io_testerEnable $end
 $var wire 32 6 io_testerDataRead $end
 $var wire 1 7 reset $end
  $scope module memory $end
    $scope module _T_1 $end
     $var wire 32 $ pipeline_data_0 $end
     $var wire 1 % mask $end
     $var wire 1 ' en $end
     $var wire 16 * addr $end
     $var wire 1 + pipeline_valid_0 $end
     $var wire 32 1 data $end
     $var wire 16 2 pipeline_addr_0 $end
     $var wire 1 3 clk $end
     $var wire 1 5 valid $end
    $upscope $end
    $scope module _T_2 $end
     $var wire 16 . addr $end
     $var wire 1 0 en $end
     $var wire 1 8 clk $end
     $var wire 32 9 data $end
    $upscope $end
    $scope module _T $end
     $var wire 16 / addr $end
     $var wire 32 : data $end
     $var wire 1 ; en $end
     $var wire 1 < clk $end
    $upscope $end
  $upscope $end
$upscope $end
$enddefinitions $end
$dumpvars
0;
0&
0<
0'
b0000000000000000 .
b00000000000000000000000000000000 "
07
b00000000000000000000000000000000 #
b0000000000000000 (
08
b00000000000000000000000000000000 9
b00000000000000000000000000000000 :
b0000000000000000 !
03
04
05
b00000000000000000000000000000000 6
0-
1%
00
b00000000000000000000000000000000 1
b00000000000000000000000000000000 )
b0000000000000000 /
0+
b00000000000000000000000000000000 ,
b00000000000000000000000000000000 $
b0000000000000000 2
b0000000000000000 *
$end
#0
10
17
#1
13
1-
1<
18
#6
03
0-
0<
08
#11
13
1-
1<
18
#16
03
0-
0<
08
#21
13
1-
1<
18
#26
03
0-
0<
08
#31
13
1-
1<
18
#36
03
0-
0<
08
#41
13
1-
1<
18
#46
03
00
0-
0<
14
08
07
1;
#51
13
1-
1<
18
#56
03
0-
0<
08
#61
13
1-
1<
18
#66
03
0-
0<
08
#71
13
1-
1<
18
#76
03
0-
0<
08
#81
13
1-
1<
18
#86
03
0-
0<
08
#91
13
1-
1<
18
#96
b0000000000000001 !
03
0-
0<
b0000000000000001 .
08
b0000000000000001 *
b0000000000000001 (
b0000000000000001 /
#101
13
1-
1<
18
b0000000000000001 2
#106
03
0-
0<
08
#111
13
1-
1<
18
#116
03
0-
0<
08
#121
13
1-
1<
18
#126
03
0-
0<
08
#131
13
1-
1<
18
#136
03
0-
0<
08
#141
13
1-
1<
18
#146
b0000000000001010 !
03
0-
0<
b0000000000000010 .
08
b0000000000001010 *
b0000000000000010 (
b0000000000001010 /
#151
13
1-
1<
18
b0000000000001010 2
#156
03
0-
0<
08
#161
13
1-
1<
18
#166
03
0-
0<
08
#171
13
1-
1<
18
#176
03
0-
0<
08
#181
13
1-
1<
18
#186
03
0-
0<
08
#191
13
1-
1<
18
#196
03
0-
0<
b0000000000111111 .
1&
15
1'
b00000000000000000001101100111001 6
b0000000000111111 (
b0000000011111111 /
b00000000000000000001101100111001 )
b0000000011111111 !
b00000000000000000001101100111001 1
08
b00000000000000000001101100111001 #
b0000000011111111 *
#201
13
1-
1<
18
b0000000011111111 2
b00000000000000000001101100111001 $
1+
b00000000000000000001101100111001 :
#206
03
0-
0<
08
#211
13
1-
1<
18
#216
03
0-
0<
08
#221
13
1-
1<
18
#226
03
0-
0<
08
#231
13
1-
1<
18
#236
03
0-
0<
08
#241
13
1-
1<
18
#246
03
0-
0<
b0000000000000001 .
0&
05
0'
b00000000000000000000000000000000 6
b0000000000000001 (
b1111111111111111 /
b00000000000000000000000000000000 )
b1111111111111111 !
b00000000000000000000000000000000 1
08
b00000000000000000000000000000000 #
b1111111111111111 *
b00000000000000000000000000000000 :
#251
13
1-
1<
18
b1111111111111111 2
b00000000000000000000000000000000 $
0+
#256
03
0-
0<
08
#261
13
1-
1<
18
#266
03
0-
0<
08
#271
13
1-
1<
18
#276
03
0-
0<
08
#281
13
1-
1<
18
#286
03
0-
0<
08
#291
13
1-
1<
18
#296
03
b0000000110100100 !
0-
0<
10
04
b0000000000000001 .
08
b0000000110100100 *
b0000000000000001 (
b0000000110100100 /
0;
#301
13
1-
1<
18
b0000000110100100 2
#306
03
0-
0<
08
#311
13
1-
1<
18
#316
03
0-
0<
08
#321
13
1-
1<
18
#326
03
0-
0<
08
#331
13
1-
1<
18
#336
03
0-
0<
08
#341
13
1-
1<
18
#346
03
0-
0<
14
b0000000000000001 .
b0000000000000001 (
b0000000001111011 /
b00000000000000000001000011100001 )
b0000000001111011 !
00
b00000000000000000001000011100001 1
08
b0000000001111011 *
1;
#351
13
1-
1<
18
b0000000001111011 2
b00000000000000000001000011100001 $
#356
03
0-
0<
08
#361
13
1-
1<
18
#366
03
0-
0<
08
#371
13
1-
1<
18
#376
03
0-
0<
08
#381
13
1-
1<
18
#386
03
0-
0<
08
#391
13
1-
1<
18
#396
03
0-
0<
b0000000000000001 .
1&
15
1'
b00000000000000000000010100111001 6
b0000000000000001 (
b0000000101000001 /
b00000000000000000000010100111001 )
b0000000101000001 !
b00000000000000000000010100111001 1
08
b00000000000000000000010100111001 #
b0000000101000001 *
#401
13
1-
1<
18
b0000000101000001 2
b00000000000000000000010100111001 $
1+
b00000000000000000000010100111001 :
